{
    "fluentMethods": true,
    "clientRootFolder": "",
    "relationships": [
        {
            "relationshipName": "results",
            "otherEntityName": "results",
            "relationshipType": "one-to-one",
            "ownerSide": false,
            "otherEntityRelationshipName": "baseGraph"
        }
    ],
    "fields": [],
    "changelogDate": "20200505084051",
    "dto": "no",
    "searchEngine": false,
    "service": "no",
    "entityTableName": "base_graph",
    "databaseType": "sql",
    "readOnly": false,
    "jpaMetamodelFiltering": false,
    "pagination": "no"
}
